-------------------------------------------------------------------------------
Test set: com.chatak.transit.afcs.server.pojo.web.DepotRegistrationResponseTest
-------------------------------------------------------------------------------
Tests run: 1, Failures: 0, Errors: 0, Skipped: 0, Time elapsed: 0.005 sec
