/home/jenkins/workspace/test/transit-common/src/main/java/com/chatak/transit/afcs/server/pojo/PGTransactionRequest.java
/home/jenkins/workspace/test/transit-common/src/main/java/com/chatak/transit/afcs/server/pojo/web/FareStatusUpdate.java
/home/jenkins/workspace/test/transit-common/src/main/java/com/chatak/transit/afcs/server/util/EncryptionUtil.java
/home/jenkins/workspace/test/transit-common/src/main/java/com/chatak/transit/afcs/server/pojo/web/DeviceOnboardListSearchResponse.java
/home/jenkins/workspace/test/transit-common/src/main/java/com/chatak/transit/afcs/server/util/MapUtil.java
/home/jenkins/workspace/test/transit-common/src/main/java/com/chatak/transit/afcs/server/pojo/web/UserProfileUpdateRequest.java
/home/jenkins/workspace/test/transit-common/src/main/java/com/chatak/transit/afcs/server/pojo/web/TransactionReportGenerationResponse.java
/home/jenkins/workspace/test/transit-common/src/main/java/com/chatak/transit/afcs/server/pojo/web/StateResponse.java
/home/jenkins/workspace/test/transit-common/src/main/java/com/chatak/transit/afcs/server/pojo/web/VehicleModelRegistrationRequest.java
/home/jenkins/workspace/test/transit-common/src/main/java/com/chatak/transit/afcs/server/pojo/web/TransitMasterSearchResponse.java
/home/jenkins/workspace/test/transit-common/src/main/java/com/chatak/transit/afcs/server/pojo/web/VehicleModelSearchRequest.java
/home/jenkins/workspace/test/transit-common/src/main/java/com/chatak/transit/afcs/server/pojo/web/SetupSoftwareRegistrationRequest.java
/home/jenkins/workspace/test/transit-common/src/main/java/com/chatak/transit/afcs/server/pojo/web/DeviceManufacturerRegistrationResponse.java
/home/jenkins/workspace/test/transit-common/src/main/java/com/chatak/transit/afcs/server/enums/HttpErrorCodes.java
/home/jenkins/workspace/test/transit-common/src/main/java/com/chatak/transit/afcs/server/pojo/web/TerminalsetupReportResponse.java
/home/jenkins/workspace/test/transit-common/src/main/java/com/chatak/transit/afcs/server/pojo/web/DeviceTrackingResponse.java
/home/jenkins/workspace/test/transit-common/src/main/java/com/chatak/transit/afcs/server/pojo/web/TransactionReportRequest.java
/home/jenkins/workspace/test/transit-common/src/main/java/com/chatak/transit/afcs/server/util/StringUtil.java
/home/jenkins/workspace/test/transit-common/src/main/java/com/chatak/transit/afcs/server/pojo/web/DeviceOnboardingRequest.java
/home/jenkins/workspace/test/transit-common/src/main/java/com/chatak/transit/afcs/server/pojo/web/OrganizationSearchResponse.java
/home/jenkins/workspace/test/transit-common/src/main/java/com/chatak/transit/afcs/server/enums/ExportType.java
/home/jenkins/workspace/test/transit-common/src/main/java/com/chatak/transit/afcs/server/pojo/web/PgResponse.java
/home/jenkins/workspace/test/transit-common/src/main/java/com/chatak/transit/afcs/server/pojo/TerminalSetUpResponse.java
/home/jenkins/workspace/test/transit-common/src/main/java/com/chatak/transit/afcs/server/pojo/web/DeviceTypeSearchRequest.java
/home/jenkins/workspace/test/transit-common/src/main/java/com/chatak/transit/afcs/server/pojo/web/SoftwareUploadResponse.java
/home/jenkins/workspace/test/transit-common/src/main/java/com/chatak/transit/afcs/server/pojo/web/DeviceListResponse.java
/home/jenkins/workspace/test/transit-common/src/main/java/com/chatak/transit/afcs/server/enums/TicketType.java
/home/jenkins/workspace/test/transit-common/src/main/java/com/chatak/transit/afcs/server/pojo/HttResponse.java
/home/jenkins/workspace/test/transit-common/src/main/java/com/chatak/transit/afcs/server/pojo/web/BaseRequest.java
/home/jenkins/workspace/test/transit-common/src/main/java/com/chatak/transit/afcs/server/pojo/web/OperatorSessionReportGenerationRequest.java
/home/jenkins/workspace/test/transit-common/src/main/java/com/chatak/transit/afcs/server/exception/PosException.java
/home/jenkins/workspace/test/transit-common/src/main/java/com/chatak/transit/afcs/server/pojo/PGServiceResponse.java
/home/jenkins/workspace/test/transit-common/src/main/java/com/chatak/transit/afcs/server/pojo/web/CountryRequest.java
/home/jenkins/workspace/test/transit-common/src/main/java/com/chatak/transit/afcs/server/pojo/web/DeviceManufacturerProfileUpdateRequest.java
/home/jenkins/workspace/test/transit-common/src/main/java/com/chatak/transit/afcs/server/pojo/web/PtoSummaryResponse.java
/home/jenkins/workspace/test/transit-common/src/main/java/com/chatak/transit/afcs/server/pojo/web/SetupSoftwareSearchResponse.java
/home/jenkins/workspace/test/transit-common/src/main/java/com/chatak/transit/afcs/server/pojo/web/DeviceOnboardSearchResponse.java
/home/jenkins/workspace/test/transit-common/src/main/java/com/chatak/transit/afcs/server/pojo/web/StopNameList.java
/home/jenkins/workspace/test/transit-common/src/main/java/com/chatak/transit/afcs/server/pojo/web/VehicleManufacturerSearchRequest.java
/home/jenkins/workspace/test/transit-common/src/main/java/com/chatak/transit/afcs/server/pojo/web/DeviceRegistrationResponse.java
/home/jenkins/workspace/test/transit-common/src/main/java/com/chatak/transit/afcs/server/pojo/web/ForgetPasswordRequest.java
/home/jenkins/workspace/test/transit-common/src/main/java/com/chatak/transit/afcs/server/pojo/web/DeviceListRequest.java
/home/jenkins/workspace/test/transit-common/src/main/java/com/chatak/transit/afcs/server/pojo/FinancialDataObject.java
/home/jenkins/workspace/test/transit-common/src/main/java/com/chatak/transit/afcs/server/pojo/web/DepotSearchResponse.java
/home/jenkins/workspace/test/transit-common/src/main/java/com/chatak/transit/afcs/server/pojo/web/SoftwareUploadRequest.java
/home/jenkins/workspace/test/transit-common/src/main/java/com/chatak/transit/afcs/server/pojo/web/TransactionReportGenerationRequest.java
/home/jenkins/workspace/test/transit-common/src/main/java/com/chatak/transit/afcs/server/pojo/web/CountryResponse.java
/home/jenkins/workspace/test/transit-common/src/main/java/com/chatak/transit/afcs/server/pojo/web/SetupSoftwareListDataResponse.java
/home/jenkins/workspace/test/transit-common/src/main/java/com/chatak/transit/afcs/server/pojo/TerminalSetUpRequest.java
/home/jenkins/workspace/test/transit-common/src/main/java/com/chatak/transit/afcs/server/pojo/web/PtoStatusCheckRequest.java
/home/jenkins/workspace/test/transit-common/src/main/java/com/chatak/transit/afcs/server/pojo/BatchUploadRequest.java
/home/jenkins/workspace/test/transit-common/src/main/java/com/chatak/transit/afcs/server/pojo/web/ProgramManagerRequest.java
/home/jenkins/workspace/test/transit-common/src/main/java/com/chatak/transit/afcs/server/pojo/web/TransitMasterSearchRequest.java
/home/jenkins/workspace/test/transit-common/src/main/java/com/chatak/transit/afcs/server/pojo/web/UserViewResponse.java
/home/jenkins/workspace/test/transit-common/src/main/java/com/chatak/transit/afcs/server/pojo/web/VehicleOnboardProfileUpdate.java
/home/jenkins/workspace/test/transit-common/src/main/java/com/chatak/transit/afcs/server/pojo/web/OpsManifestRegistrationResponse.java
/home/jenkins/workspace/test/transit-common/src/main/java/com/chatak/transit/afcs/server/pojo/web/DeviceManufacturerListSearchResponse.java
/home/jenkins/workspace/test/transit-common/src/main/java/com/chatak/transit/afcs/server/pojo/web/FareSearchResponse.java
/home/jenkins/workspace/test/transit-common/src/main/java/com/chatak/transit/afcs/server/pojo/web/OrganizationSearchRequest.java
/home/jenkins/workspace/test/transit-common/src/main/java/com/chatak/transit/afcs/server/pojo/web/SetupSoftwareListData.java
/home/jenkins/workspace/test/transit-common/src/main/java/com/chatak/transit/afcs/server/pojo/web/RouteNameList.java
/home/jenkins/workspace/test/transit-common/src/main/java/com/chatak/transit/afcs/server/pojo/web/DeviceOnboardProfileUpdateRequest.java
/home/jenkins/workspace/test/transit-common/src/main/java/com/chatak/transit/afcs/server/pojo/web/PtoUpdateRequest.java
/home/jenkins/workspace/test/transit-common/src/main/java/com/chatak/transit/afcs/server/pojo/web/RoleLevelFeatureRequest.java
/home/jenkins/workspace/test/transit-common/src/main/java/com/chatak/transit/afcs/server/pojo/web/DeviceModelList.java
/home/jenkins/workspace/test/transit-common/src/main/java/com/chatak/transit/afcs/server/pojo/HTTCustomError.java
/home/jenkins/workspace/test/transit-common/src/main/java/com/chatak/transit/afcs/server/pojo/web/StopUpdateRequest.java
/home/jenkins/workspace/test/transit-common/src/main/java/com/chatak/transit/afcs/server/pojo/web/LoginSessionDetailsRequest.java
/home/jenkins/workspace/test/transit-common/src/main/java/com/chatak/transit/afcs/server/pojo/web/SoftwareDownloadRequest.java
/home/jenkins/workspace/test/transit-common/src/main/java/com/chatak/transit/afcs/server/pojo/TransitTerminalSetUpResponse.java
/home/jenkins/workspace/test/transit-common/src/main/java/com/chatak/transit/afcs/server/pojo/AFCSCommonRequest.java
/home/jenkins/workspace/test/transit-common/src/main/java/com/chatak/transit/afcs/server/pojo/web/CommonUserParameter.java
/home/jenkins/workspace/test/transit-common/src/main/java/com/chatak/transit/afcs/server/pojo/web/LoginResponseParameters.java
/home/jenkins/workspace/test/transit-common/src/main/java/com/chatak/transit/afcs/server/pojo/web/VehicleTypeList.java
/home/jenkins/workspace/test/transit-common/src/main/java/com/chatak/transit/afcs/server/pojo/web/VehicleManufacturerListResponse.java
/home/jenkins/workspace/test/transit-common/src/main/java/com/chatak/transit/afcs/server/pojo/web/StageProfileData.java
/home/jenkins/workspace/test/transit-common/src/main/java/com/chatak/transit/afcs/server/pojo/web/ProductSearchResponse.java
/home/jenkins/workspace/test/transit-common/src/main/java/com/chatak/transit/afcs/server/pojo/web/StageRegistrationRequest.java
/home/jenkins/workspace/test/transit-common/src/main/java/com/chatak/transit/afcs/server/pojo/web/DeviceTypeRegistrationResponse.java
/home/jenkins/workspace/test/transit-common/src/main/java/com/chatak/transit/afcs/server/pojo/web/AddressRequest.java
/home/jenkins/workspace/test/transit-common/src/main/java/com/chatak/transit/afcs/server/pojo/web/DepotData.java
/home/jenkins/workspace/test/transit-common/src/main/java/com/chatak/transit/afcs/server/pojo/web/DeviceModelExistCheckRequest.java
/home/jenkins/workspace/test/transit-common/src/main/java/com/chatak/transit/afcs/server/pojo/web/ProductStatusChangeRequest.java
/home/jenkins/workspace/test/transit-common/src/main/java/com/chatak/transit/afcs/server/pojo/web/UserListRequest.java
/home/jenkins/workspace/test/transit-common/src/main/java/com/chatak/transit/afcs/server/util/PasswordHandler.java
/home/jenkins/workspace/test/transit-common/src/main/java/com/chatak/transit/afcs/server/exception/AfcsHttpClientException.java
/home/jenkins/workspace/test/transit-common/src/main/java/com/chatak/transit/afcs/server/pojo/web/CountryListResponse.java
/home/jenkins/workspace/test/transit-common/src/main/java/com/chatak/transit/afcs/server/pojo/web/DeviceManufacturerSearchRequest.java
/home/jenkins/workspace/test/transit-common/src/main/java/com/chatak/transit/afcs/server/pojo/web/StageNameList.java
/home/jenkins/workspace/test/transit-common/src/main/java/com/chatak/transit/afcs/server/pojo/TransitFileDownloadResponse.java
/home/jenkins/workspace/test/transit-common/src/main/java/com/chatak/transit/afcs/server/pojo/web/RoleRegistrationRequest.java
/home/jenkins/workspace/test/transit-common/src/main/java/com/chatak/transit/afcs/server/pojo/web/PtoStatusUpdateRequest.java
/home/jenkins/workspace/test/transit-common/src/main/java/com/chatak/transit/afcs/server/pojo/web/DeviceTypeProfileUpdateRequest.java
/home/jenkins/workspace/test/transit-common/src/main/java/com/chatak/transit/afcs/server/pojo/web/PtoPermissionRequest.java
/home/jenkins/workspace/test/transit-common/src/main/java/com/chatak/transit/afcs/server/pojo/web/VehicleModelResponse.java
/home/jenkins/workspace/test/transit-common/src/main/java/com/chatak/transit/afcs/server/pojo/web/VehicleManufacturerStatusUpdate.java
/home/jenkins/workspace/test/transit-common/src/main/java/com/chatak/transit/afcs/server/enums/UserPasswordStatus.java
/home/jenkins/workspace/test/transit-common/src/main/java/com/chatak/transit/afcs/server/pojo/web/LoginSessionDetailsResponse.java
/home/jenkins/workspace/test/transit-common/src/main/java/com/chatak/transit/afcs/server/pojo/web/SoftwareDownloadResponse.java
/home/jenkins/workspace/test/transit-common/src/main/java/com/chatak/transit/afcs/server/pojo/web/IssuerResponse.java
/home/jenkins/workspace/test/transit-common/src/main/java/com/chatak/transit/afcs/server/pojo/web/SetupSoftwareUpdateRequest.java
/home/jenkins/workspace/test/transit-common/src/main/java/com/chatak/transit/afcs/server/constants/FinancialTxnIdValueConstant.java
/home/jenkins/workspace/test/transit-common/src/main/java/com/chatak/transit/afcs/server/pojo/web/OrganizationStatusCheckRequest.java
/home/jenkins/workspace/test/transit-common/src/main/java/com/chatak/transit/afcs/server/constants/FinancialTxnConstants.java
/home/jenkins/workspace/test/transit-common/src/main/java/com/chatak/transit/afcs/server/pojo/web/DepotListViewRequest.java
/home/jenkins/workspace/test/transit-common/src/main/java/com/chatak/transit/afcs/server/model/NotEmptyAndNull.java
/home/jenkins/workspace/test/transit-common/src/main/java/com/chatak/transit/afcs/server/pojo/web/SetupSoftwareUpdateResponse.java
/home/jenkins/workspace/test/transit-common/src/main/java/com/chatak/transit/afcs/server/constants/HTTErrorConstant.java
/home/jenkins/workspace/test/transit-common/src/main/java/com/chatak/transit/afcs/server/pojo/web/UserRegistrationRequest.java
/home/jenkins/workspace/test/transit-common/src/main/java/com/chatak/transit/afcs/server/pojo/AFCSCommonResponse.java
/home/jenkins/workspace/test/transit-common/src/main/java/com/chatak/transit/afcs/server/pojo/web/FareSearchRequest.java
/home/jenkins/workspace/test/transit-common/src/main/java/com/chatak/transit/afcs/server/pojo/web/TerminalsetupReportGenerationRequest.java
/home/jenkins/workspace/test/transit-common/src/main/java/com/chatak/transit/afcs/server/pojo/web/StateRequest.java
/home/jenkins/workspace/test/transit-common/src/main/java/com/chatak/transit/afcs/server/pojo/AdminSessionRequest.java
/home/jenkins/workspace/test/transit-common/src/main/java/com/chatak/transit/afcs/server/pojo/web/PtoList.java
/home/jenkins/workspace/test/transit-common/src/main/java/com/chatak/transit/afcs/server/pojo/web/DeviceSearchData.java
/home/jenkins/workspace/test/transit-common/src/main/java/com/chatak/transit/afcs/server/pojo/web/DeviceOnboardingResponse.java
/home/jenkins/workspace/test/transit-common/src/main/java/com/chatak/transit/afcs/server/pojo/web/DeviceModelResponse.java
/home/jenkins/workspace/test/transit-common/src/main/java/com/chatak/transit/afcs/server/pojo/web/PtoRegistrationResponse.java
/home/jenkins/workspace/test/transit-common/src/main/java/com/chatak/transit/afcs/server/pojo/web/TerminalSetupReportGenerationResponse.java
/home/jenkins/workspace/test/transit-common/src/main/java/com/chatak/transit/afcs/server/pojo/web/DeviceModelListResponse.java
/home/jenkins/workspace/test/transit-common/src/main/java/com/chatak/transit/afcs/server/pojo/web/SoftwareVersionCheckRequest.java
/home/jenkins/workspace/test/transit-common/src/main/java/com/chatak/transit/afcs/server/pojo/web/TransitMasterUpdateRequest.java
/home/jenkins/workspace/test/transit-common/src/main/java/com/chatak/transit/afcs/server/pojo/web/DiscountResponse.java
/home/jenkins/workspace/test/transit-common/src/main/java/com/chatak/transit/afcs/server/pojo/web/OpsManifestRegistrationRequest.java
/home/jenkins/workspace/test/transit-common/src/main/java/com/chatak/transit/afcs/server/pojo/web/RouteListSearchResponse.java
/home/jenkins/workspace/test/transit-common/src/main/java/com/chatak/transit/afcs/server/pojo/web/DeviceTypeStatusUpdateRequest.java
/home/jenkins/workspace/test/transit-common/src/main/java/com/chatak/transit/afcs/server/exception/AFCSException.java
/home/jenkins/workspace/test/transit-common/src/main/java/com/chatak/transit/afcs/server/pojo/web/PtoSearchRequest.java
/home/jenkins/workspace/test/transit-common/src/main/java/com/chatak/transit/afcs/server/pojo/web/DepotStatusCheckRequest.java
/home/jenkins/workspace/test/transit-common/src/main/java/com/chatak/transit/afcs/server/pojo/web/DeviceTypeSearchResponse.java
/home/jenkins/workspace/test/transit-common/src/main/java/com/chatak/transit/afcs/server/pojo/web/DepotSearchRequest.java
/home/jenkins/workspace/test/transit-common/src/main/java/com/chatak/transit/afcs/server/pojo/web/SetupSoftwareSearchRequest.java
/home/jenkins/workspace/test/transit-common/src/main/java/com/chatak/transit/afcs/server/pojo/web/SetupSoftwareRegistrationResponse.java
/home/jenkins/workspace/test/transit-common/src/main/java/com/chatak/transit/afcs/server/pojo/web/RoleFeatureResponse.java
/home/jenkins/workspace/test/transit-common/src/main/java/com/chatak/transit/afcs/server/pojo/web/DeviceManufacturerSearchData.java
/home/jenkins/workspace/test/transit-common/src/main/java/com/chatak/transit/afcs/server/pojo/web/FeeRegistrationResponse.java
/home/jenkins/workspace/test/transit-common/src/main/java/com/chatak/transit/afcs/server/pojo/web/OperatorSessionReportResponse.java
/home/jenkins/workspace/test/transit-common/src/main/java/com/chatak/transit/afcs/server/pojo/web/DeviceManufacturerRegistrationRequest.java
/home/jenkins/workspace/test/transit-common/src/main/java/com/chatak/transit/afcs/server/pojo/web/FareRegistrationRequest.java
/home/jenkins/workspace/test/transit-common/src/main/java/com/chatak/transit/afcs/server/pojo/web/UserDetail.java
/home/jenkins/workspace/test/transit-common/src/main/java/com/chatak/transit/afcs/server/pojo/TransitTicketTransactionDataRequest.java
/home/jenkins/workspace/test/transit-common/src/main/java/com/chatak/transit/afcs/server/pojo/web/DiscountListResponse.java
/home/jenkins/workspace/test/transit-common/src/main/java/com/chatak/transit/afcs/server/pojo/web/TransitMasterRegistrationResponse.java
/home/jenkins/workspace/test/transit-common/src/main/java/com/chatak/transit/afcs/server/pojo/EmailData.java
/home/jenkins/workspace/test/transit-common/src/main/java/com/chatak/transit/afcs/server/pojo/web/PgRequest.java
/home/jenkins/workspace/test/transit-common/src/main/java/com/chatak/transit/afcs/server/pojo/web/UserListResponse.java
/home/jenkins/workspace/test/transit-common/src/main/java/com/chatak/transit/afcs/server/pojo/web/DepotProfileUpdateRequest.java
/home/jenkins/workspace/test/transit-common/src/main/java/com/chatak/transit/afcs/server/pojo/web/AddStages.java
/home/jenkins/workspace/test/transit-common/src/main/java/com/chatak/transit/afcs/server/pojo/web/RoleRegistrationResponse.java
/home/jenkins/workspace/test/transit-common/src/main/java/com/chatak/transit/afcs/server/enums/EmailEvent.java
/home/jenkins/workspace/test/transit-common/src/main/java/com/chatak/transit/afcs/server/pojo/web/PtoListRequest.java
/home/jenkins/workspace/test/transit-common/src/main/java/com/chatak/transit/afcs/server/util/DateUtil.java
/home/jenkins/workspace/test/transit-common/src/main/java/com/chatak/transit/afcs/server/pojo/web/BlacklistedAccountRequest.java
/home/jenkins/workspace/test/transit-common/src/main/java/com/chatak/transit/afcs/server/pojo/web/StateListResponse.java
/home/jenkins/workspace/test/transit-common/src/main/java/com/chatak/transit/afcs/server/pojo/web/DeviceRegistrationRequest.java
/home/jenkins/workspace/test/transit-common/src/main/java/com/chatak/transit/afcs/server/pojo/web/RoleRequest.java
/home/jenkins/workspace/test/transit-common/src/main/java/com/chatak/transit/afcs/server/pojo/web/DeviceManuFacturerListViewResponse.java
/home/jenkins/workspace/test/transit-common/src/main/java/com/chatak/transit/afcs/server/enums/EmailStatus.java
/home/jenkins/workspace/test/transit-common/src/main/java/com/chatak/transit/afcs/server/pojo/FileDownloadRequest.java
/home/jenkins/workspace/test/transit-common/src/main/java/com/chatak/transit/afcs/server/pojo/web/PmOnboardingRequest.java
/home/jenkins/workspace/test/transit-common/src/main/java/com/chatak/transit/afcs/server/pojo/web/DepotRegistrationResponse.java
/home/jenkins/workspace/test/transit-common/src/main/java/com/chatak/transit/afcs/server/pojo/web/FareUpdateRequest.java
/home/jenkins/workspace/test/transit-common/src/main/java/com/chatak/transit/afcs/server/pojo/web/TransactionRequest.java
/home/jenkins/workspace/test/transit-common/src/main/java/com/chatak/transit/afcs/server/pojo/web/VehicleManufacturerSearchResponse.java
/home/jenkins/workspace/test/transit-common/src/main/java/com/chatak/transit/afcs/server/pojo/EmailProperties.java
/home/jenkins/workspace/test/transit-common/src/main/java/com/chatak/transit/afcs/server/pojo/web/TicketTxnDataResponse.java
/home/jenkins/workspace/test/transit-common/src/main/java/com/chatak/transit/afcs/server/pojo/web/VehicleManufacturerRegistrationRequest.java
/home/jenkins/workspace/test/transit-common/src/main/java/com/chatak/transit/afcs/server/pojo/web/DeviceModelListSearchResponse.java
/home/jenkins/workspace/test/transit-common/src/main/java/com/chatak/transit/afcs/server/pojo/web/VehicleModelSearchResponse.java
/home/jenkins/workspace/test/transit-common/src/main/java/com/chatak/transit/afcs/server/pojo/FinancialTxnDataRequest.java
/home/jenkins/workspace/test/transit-common/src/main/java/com/chatak/transit/afcs/server/pojo/web/OpsManifestStatusChangeRequest.java
/home/jenkins/workspace/test/transit-common/src/main/java/com/chatak/transit/afcs/server/pojo/web/RoleSearchRequest.java
/home/jenkins/workspace/test/transit-common/src/main/java/com/chatak/transit/afcs/server/pojo/web/ProductSearchRequest.java
/home/jenkins/workspace/test/transit-common/src/main/java/com/chatak/transit/afcs/server/pojo/web/SoftwareInfoCheckDataResponse.java
/home/jenkins/workspace/test/transit-common/src/main/java/com/chatak/transit/afcs/server/pojo/web/PassengerAnalysisRequest.java
/home/jenkins/workspace/test/transit-common/src/main/java/com/chatak/transit/afcs/server/pojo/web/DeviceDetails.java
/home/jenkins/workspace/test/transit-common/src/main/java/com/chatak/transit/afcs/server/pojo/web/FeeRegistrationRequest.java
/home/jenkins/workspace/test/transit-common/src/main/java/com/chatak/transit/afcs/server/pojo/web/RouteRegistrationResponse.java
/home/jenkins/workspace/test/transit-common/src/main/java/com/chatak/transit/afcs/server/pojo/web/DiscountStatusChangeRequest.java
/home/jenkins/workspace/test/transit-common/src/main/java/com/chatak/transit/afcs/server/pojo/web/OperatorStatusChangeRequest.java
/home/jenkins/workspace/test/transit-common/src/main/java/com/chatak/transit/afcs/server/pojo/web/UserStatusUpdateRequest.java
/home/jenkins/workspace/test/transit-common/src/main/java/com/chatak/transit/afcs/server/pojo/web/VehicleModelProfileUpdate.java
/home/jenkins/workspace/test/transit-common/src/main/java/com/chatak/transit/afcs/server/pojo/web/MasterFileDownloadRequest.java
/home/jenkins/workspace/test/transit-common/src/main/java/com/chatak/transit/afcs/server/pojo/web/DeviceTypeData.java
/home/jenkins/workspace/test/transit-common/src/main/java/com/chatak/transit/afcs/server/pojo/web/WebResponse.java
/home/jenkins/workspace/test/transit-common/src/main/java/com/chatak/transit/afcs/server/pojo/web/DeviceTrackingRequest.java
/home/jenkins/workspace/test/transit-common/src/main/java/com/chatak/transit/afcs/server/pojo/web/UserData.java
/home/jenkins/workspace/test/transit-common/src/main/java/com/chatak/transit/afcs/server/constants/FileDownloadConstant.java
/home/jenkins/workspace/test/transit-common/src/main/java/com/chatak/transit/afcs/server/pojo/web/BulkUploadRequest.java
/home/jenkins/workspace/test/transit-common/src/main/java/com/chatak/transit/afcs/server/constants/AdminSessionConstants.java
/home/jenkins/workspace/test/transit-common/src/main/java/com/chatak/transit/afcs/server/pojo/web/IssuerRequest.java
/home/jenkins/workspace/test/transit-common/src/main/java/com/chatak/transit/afcs/server/pojo/web/CityResponse.java
/home/jenkins/workspace/test/transit-common/src/main/java/com/chatak/transit/afcs/server/pojo/web/DeviceModelSearchRequest.java
/home/jenkins/workspace/test/transit-common/src/main/java/com/chatak/transit/afcs/server/pojo/web/OrganizationRegistrationRequest.java
/home/jenkins/workspace/test/transit-common/src/main/java/com/chatak/transit/afcs/server/pojo/web/DeviceModelStatusUpdateRequest.java
/home/jenkins/workspace/test/transit-common/src/main/java/com/chatak/transit/afcs/server/pojo/web/VehicleOnboardingSearchResponse.java
/home/jenkins/workspace/test/transit-common/src/main/java/com/chatak/transit/afcs/server/pojo/AdminSessionResponse.java
/home/jenkins/workspace/test/transit-common/src/main/java/com/chatak/transit/afcs/server/pojo/web/DeviceModelRequest.java
/home/jenkins/workspace/test/transit-common/src/main/java/com/chatak/transit/afcs/server/pojo/web/BlacklistedAccountResponse.java
/home/jenkins/workspace/test/transit-common/src/main/java/com/chatak/transit/afcs/server/pojo/web/DeviceModelProfileUpdateRequest.java
/home/jenkins/workspace/test/transit-common/src/main/java/com/chatak/transit/afcs/server/pojo/web/OrganizationUpdateRequest.java
/home/jenkins/workspace/test/transit-common/src/main/java/com/chatak/transit/afcs/server/pojo/web/VehicleModelListResponse.java
/home/jenkins/workspace/test/transit-common/src/main/java/com/chatak/transit/afcs/server/enums/Status.java
/home/jenkins/workspace/test/transit-common/src/main/java/com/chatak/transit/afcs/server/pojo/web/VehicleTypeStatusUpdate.java
/home/jenkins/workspace/test/transit-common/src/main/java/com/chatak/transit/afcs/server/model/RegexCheck.java
/home/jenkins/workspace/test/transit-common/src/main/java/com/chatak/transit/afcs/server/pojo/TransitFileDownloadRequest.java
/home/jenkins/workspace/test/transit-common/src/main/java/com/chatak/transit/afcs/server/pojo/web/StageSearchRequest.java
/home/jenkins/workspace/test/transit-common/src/main/java/com/chatak/transit/afcs/server/pojo/web/VehicleManufacturerProfileUpdate.java
/home/jenkins/workspace/test/transit-common/src/main/java/com/chatak/transit/afcs/server/pojo/TicketDetail.java
/home/jenkins/workspace/test/transit-common/src/main/java/com/chatak/transit/afcs/server/pojo/TicketTransactionDataResponse.java
/home/jenkins/workspace/test/transit-common/src/main/java/com/chatak/transit/afcs/server/pojo/web/StageRegistrationResponse.java
/home/jenkins/workspace/test/transit-common/src/main/java/com/chatak/transit/afcs/server/pojo/web/OperatorSessionReportGenerationResponse.java
/home/jenkins/workspace/test/transit-common/src/main/java/com/chatak/transit/afcs/server/pojo/web/TransitMasterListDataResponse.java
/home/jenkins/workspace/test/transit-common/src/main/java/com/chatak/transit/afcs/server/pojo/web/TransitMasterRegistrationRequest.java
/home/jenkins/workspace/test/transit-common/src/main/java/com/chatak/transit/afcs/server/util/Utility.java
/home/jenkins/workspace/test/transit-common/src/main/java/com/chatak/transit/afcs/server/constants/TerminalConstant.java
/home/jenkins/workspace/test/transit-common/src/main/java/com/chatak/transit/afcs/server/constants/TicketConstants.java
/home/jenkins/workspace/test/transit-common/src/main/java/com/chatak/transit/afcs/server/constants/Constants.java
/home/jenkins/workspace/test/transit-common/src/main/java/com/chatak/transit/afcs/server/pojo/web/RouteSearchResponse.java
/home/jenkins/workspace/test/transit-common/src/main/java/com/chatak/transit/afcs/server/pojo/web/VehicleOnboardingResponse.java
/home/jenkins/workspace/test/transit-common/src/main/java/com/chatak/transit/afcs/server/pojo/web/LoginResponse.java
/home/jenkins/workspace/test/transit-common/src/main/java/com/chatak/transit/afcs/server/pojo/web/OpsManifestSearchRequest.java
/home/jenkins/workspace/test/transit-common/src/main/java/com/chatak/transit/afcs/server/pojo/web/MasterFileDownloadResponse.java
/home/jenkins/workspace/test/transit-common/src/main/java/com/chatak/transit/afcs/server/pojo/web/VehicleTypeSearchRequest.java
/home/jenkins/workspace/test/transit-common/src/main/java/com/chatak/transit/afcs/server/pojo/Request.java
/home/jenkins/workspace/test/transit-common/src/main/java/com/chatak/transit/afcs/server/pojo/web/VehicleTypeRegistrationRequest.java
/home/jenkins/workspace/test/transit-common/src/main/java/com/chatak/transit/afcs/server/pojo/web/DeviceModelExistCheckResponse.java
/home/jenkins/workspace/test/transit-common/src/main/java/com/chatak/transit/afcs/server/pojo/web/OrganisationNameList.java
/home/jenkins/workspace/test/transit-common/src/main/java/com/chatak/transit/afcs/server/pojo/web/RouteStatusUpdateRequest.java
/home/jenkins/workspace/test/transit-common/src/main/java/com/chatak/transit/afcs/server/pojo/web/SoftwareRegistrationResponse.java
/home/jenkins/workspace/test/transit-common/src/main/java/com/chatak/transit/afcs/server/pojo/web/FeeUpdateRequest.java
/home/jenkins/workspace/test/transit-common/src/main/java/com/chatak/transit/afcs/server/constants/ServerConstants.java
/home/jenkins/workspace/test/transit-common/src/main/java/com/chatak/transit/afcs/server/pojo/web/PtoListResponse.java
/home/jenkins/workspace/test/transit-common/src/main/java/com/chatak/transit/afcs/server/pojo/web/StageResponse.java
/home/jenkins/workspace/test/transit-common/src/main/java/com/chatak/transit/afcs/server/pojo/web/SoftwareInfoCheckDataRequest.java
/home/jenkins/workspace/test/transit-common/src/main/java/com/chatak/transit/afcs/server/pojo/web/StopRegistrationResponse.java
/home/jenkins/workspace/test/transit-common/src/main/java/com/chatak/transit/afcs/server/pojo/web/TransactionReportResponse.java
/home/jenkins/workspace/test/transit-common/src/main/java/com/chatak/transit/afcs/server/pojo/web/ChangePasswordRequest.java
/home/jenkins/workspace/test/transit-common/src/main/java/com/chatak/transit/afcs/server/pojo/web/TransactionsData.java
/home/jenkins/workspace/test/transit-common/src/main/java/com/chatak/transit/afcs/server/pojo/CardData.java
/home/jenkins/workspace/test/transit-common/src/main/java/com/chatak/transit/afcs/server/pojo/web/OperatorRegistrationRequest.java
/home/jenkins/workspace/test/transit-common/src/main/java/com/chatak/transit/afcs/server/pojo/FileDownloadResponse.java
/home/jenkins/workspace/test/transit-common/src/main/java/com/chatak/transit/afcs/server/pojo/web/ResetPasswordRequest.java
/home/jenkins/workspace/test/transit-common/src/main/java/com/chatak/transit/afcs/server/pojo/web/OrganizationRegistrationResponse.java
/home/jenkins/workspace/test/transit-common/src/main/java/com/chatak/transit/afcs/server/pojo/web/VehicleModelList.java
/home/jenkins/workspace/test/transit-common/src/main/java/com/chatak/transit/afcs/server/pojo/web/TransitFeatureRequest.java
/home/jenkins/workspace/test/transit-common/src/main/java/com/chatak/transit/afcs/server/pojo/web/DeviceTypeRegistrationRequest.java
/home/jenkins/workspace/test/transit-common/src/main/java/com/chatak/transit/afcs/server/pojo/web/TransactionsManagementRequest.java
/home/jenkins/workspace/test/transit-common/src/main/java/com/chatak/transit/afcs/server/pojo/web/PtoSearchResponse.java
/home/jenkins/workspace/test/transit-common/src/main/java/com/chatak/transit/afcs/server/model/OrderChecks.java
/home/jenkins/workspace/test/transit-common/src/main/java/com/chatak/transit/afcs/server/pojo/web/TransactionIdList.java
/home/jenkins/workspace/test/transit-common/src/main/java/com/chatak/transit/afcs/server/pojo/web/FeeSearchResponse.java
/home/jenkins/workspace/test/transit-common/src/main/java/com/chatak/transit/afcs/server/pojo/BatchSummary.java
/home/jenkins/workspace/test/transit-common/src/main/java/com/chatak/transit/afcs/server/pojo/web/DiscountRequest.java
/home/jenkins/workspace/test/transit-common/src/main/java/com/chatak/transit/afcs/server/pojo/web/DevcieTypeList.java
/home/jenkins/workspace/test/transit-common/src/main/java/com/chatak/transit/afcs/server/pojo/Response.java
/home/jenkins/workspace/test/transit-common/src/main/java/com/chatak/transit/afcs/server/pojo/web/OrganizationResponse.java
/home/jenkins/workspace/test/transit-common/src/main/java/com/chatak/transit/afcs/server/pojo/web/VehicleTypeSearchResponse.java
/home/jenkins/workspace/test/transit-common/src/main/java/com/chatak/transit/afcs/server/enums/SessionAdminTransactionTypeEnum.java
/home/jenkins/workspace/test/transit-common/src/main/java/com/chatak/transit/afcs/server/pojo/web/FareCalculation.java
/home/jenkins/workspace/test/transit-common/src/main/java/com/chatak/transit/afcs/server/pojo/CardInfo.java
/home/jenkins/workspace/test/transit-common/src/main/java/com/chatak/transit/afcs/server/util/Helper.java
/home/jenkins/workspace/test/transit-common/src/main/java/com/chatak/transit/afcs/server/model/OAuthToken.java
/home/jenkins/workspace/test/transit-common/src/main/java/com/chatak/transit/afcs/server/pojo/web/TransitMasterListData.java
/home/jenkins/workspace/test/transit-common/src/main/java/com/chatak/transit/afcs/server/pojo/web/UserStatusUpdateResponse.java
/home/jenkins/workspace/test/transit-common/src/main/java/com/chatak/transit/afcs/server/pojo/TransitTerminalSetUpRequest.java
/home/jenkins/workspace/test/transit-common/src/main/java/com/chatak/transit/afcs/server/pojo/web/OpsManifestSearchResponse.java
/home/jenkins/workspace/test/transit-common/src/main/java/com/chatak/transit/afcs/server/pojo/FinancialTxnDataResponse.java
/home/jenkins/workspace/test/transit-common/src/main/java/com/chatak/transit/afcs/server/pojo/web/StageStatusUpdateRequest.java
/home/jenkins/workspace/test/transit-common/src/main/java/com/chatak/transit/afcs/server/pojo/web/ProductRegistrationResponse.java
/home/jenkins/workspace/test/transit-common/src/main/java/com/chatak/transit/afcs/server/model/SizeCheck.java
/home/jenkins/workspace/test/transit-common/src/main/java/com/chatak/transit/afcs/server/pojo/web/ProductRegistrationRequest.java
/home/jenkins/workspace/test/transit-common/src/main/java/com/chatak/transit/afcs/server/pojo/web/DepotListViewResponse.java
/home/jenkins/workspace/test/transit-common/src/main/java/com/chatak/transit/afcs/server/pojo/web/DeviceTypeListViewRequest.java
/home/jenkins/workspace/test/transit-common/src/main/java/com/chatak/transit/afcs/server/pojo/TicketTransactionDataRequest.java
/home/jenkins/workspace/test/transit-common/src/main/java/com/chatak/transit/afcs/server/pojo/web/OperatorSearchRequest.java
/home/jenkins/workspace/test/transit-common/src/main/java/com/chatak/transit/afcs/server/pojo/web/DeviceManufacturerSearchResponse.java
/home/jenkins/workspace/test/transit-common/src/main/java/com/chatak/transit/afcs/server/pojo/web/VehicleModelStatusUpdate.java
/home/jenkins/workspace/test/transit-common/src/main/java/com/chatak/transit/afcs/server/pojo/web/OperatorResponse.java
/home/jenkins/workspace/test/transit-common/src/main/java/com/chatak/transit/afcs/server/pojo/web/PtoRegistrationRequest.java
/home/jenkins/workspace/test/transit-common/src/main/java/com/chatak/transit/afcs/server/pojo/web/SoftwareRegistrationRequest.java
/home/jenkins/workspace/test/transit-common/src/main/java/com/chatak/transit/afcs/server/pojo/web/DepotRegistrationRequest.java
/home/jenkins/workspace/test/transit-common/src/main/java/com/chatak/transit/afcs/server/pojo/web/VehicleOnboardStatusUpdate.java
/home/jenkins/workspace/test/transit-common/src/main/java/com/chatak/transit/afcs/server/util/Properties.java
/home/jenkins/workspace/test/transit-common/src/main/java/com/chatak/transit/afcs/server/pojo/web/PtoSummaryRequest.java
/home/jenkins/workspace/test/transit-common/src/main/java/com/chatak/transit/afcs/server/pojo/web/SearchUserResponse.java
/home/jenkins/workspace/test/transit-common/src/main/java/com/chatak/transit/afcs/server/pojo/web/SoftwareVersionCheckResponse.java
/home/jenkins/workspace/test/transit-common/src/main/java/com/chatak/transit/afcs/server/enums/CustomErrorCodes.java
/home/jenkins/workspace/test/transit-common/src/main/java/com/chatak/transit/afcs/server/pojo/web/RoleResponse.java
/home/jenkins/workspace/test/transit-common/src/main/java/com/chatak/transit/afcs/server/pojo/web/EditRoleResponse.java
/home/jenkins/workspace/test/transit-common/src/main/java/com/chatak/transit/afcs/server/pojo/web/TransactionResponse.java
/home/jenkins/workspace/test/transit-common/src/main/java/com/chatak/transit/afcs/server/pojo/web/UserInfoCheck.java
/home/jenkins/workspace/test/transit-common/src/main/java/com/chatak/transit/afcs/server/pojo/web/DeviceProfileUpdateRequest.java
/home/jenkins/workspace/test/transit-common/src/main/java/com/chatak/transit/afcs/server/pojo/web/DeviceOnboardSearchRequest.java
/home/jenkins/workspace/test/transit-common/src/main/java/com/chatak/transit/afcs/server/pojo/web/RouteSearchRequest.java
/home/jenkins/workspace/test/transit-common/src/main/java/com/chatak/transit/afcs/server/pojo/TripDetails.java
/home/jenkins/workspace/test/transit-common/src/main/java/com/chatak/transit/afcs/server/pojo/web/DeviceManufacturerStatusUpdateRequest.java
/home/jenkins/workspace/test/transit-common/src/main/java/com/chatak/transit/afcs/server/pojo/web/RouteRegistrationRequest.java
/home/jenkins/workspace/test/transit-common/src/main/java/com/chatak/transit/afcs/server/pojo/web/FareCalculationResponse.java
/home/jenkins/workspace/test/transit-common/src/main/java/com/chatak/transit/afcs/server/pojo/TransitLocationUpdateRequest.java
/home/jenkins/workspace/test/transit-common/src/main/java/com/chatak/transit/afcs/server/pojo/web/OperatorUpdateRequest.java
/home/jenkins/workspace/test/transit-common/src/main/java/com/chatak/transit/afcs/server/pojo/web/PmOnboardingResponse.java
/home/jenkins/workspace/test/transit-common/src/main/java/com/chatak/transit/afcs/server/pojo/web/DeviceManufacturerListResponse.java
/home/jenkins/workspace/test/transit-common/src/main/java/com/chatak/transit/afcs/server/pojo/web/PassengerAnalysisResponse.java
/home/jenkins/workspace/test/transit-common/src/main/java/com/chatak/transit/afcs/server/pojo/web/OpsManifestUpdateRequest.java
/home/jenkins/workspace/test/transit-common/src/main/java/com/chatak/transit/afcs/server/pojo/web/OrganizationStatusUpdateRequest.java
/home/jenkins/workspace/test/transit-common/src/main/java/com/chatak/transit/afcs/server/pojo/web/ProductUpdateRequest.java
/home/jenkins/workspace/test/transit-common/src/main/java/com/chatak/transit/afcs/server/pojo/web/StopSearchResponse.java
/home/jenkins/workspace/test/transit-common/src/main/java/com/chatak/transit/afcs/server/pojo/web/VehicleOnboardingSearchRequest.java
/home/jenkins/workspace/test/transit-common/src/main/java/com/chatak/transit/afcs/server/pojo/web/FareRegistrationResponse.java
/home/jenkins/workspace/test/transit-common/src/main/java/com/chatak/transit/afcs/server/pojo/web/StopRegistrationRequest.java
/home/jenkins/workspace/test/transit-common/src/main/java/com/chatak/transit/afcs/server/util/Version.java
/home/jenkins/workspace/test/transit-common/src/main/java/com/chatak/transit/afcs/server/pojo/web/VehicleManufacturerResponse.java
/home/jenkins/workspace/test/transit-common/src/main/java/com/chatak/transit/afcs/server/pojo/web/DeviceModelSearchResponse.java
/home/jenkins/workspace/test/transit-common/src/main/java/com/chatak/transit/afcs/server/pojo/web/DeviceTypeListViewResponse.java
/home/jenkins/workspace/test/transit-common/src/main/java/com/chatak/transit/afcs/server/pojo/web/RolesSearchResponse.java
/home/jenkins/workspace/test/transit-common/src/main/java/com/chatak/transit/afcs/server/pojo/web/VehicleOnboardingRequest.java
/home/jenkins/workspace/test/transit-common/src/main/java/com/chatak/transit/afcs/server/pojo/web/CityRequest.java
/home/jenkins/workspace/test/transit-common/src/main/java/com/chatak/transit/afcs/server/pojo/web/DeviceSearchResponse.java
/home/jenkins/workspace/test/transit-common/src/main/java/com/chatak/transit/afcs/server/pojo/web/DeviceManufacturerListViewRequest.java
/home/jenkins/workspace/test/transit-common/src/main/java/com/chatak/transit/afcs/server/pojo/web/FeeSearchRequest.java
/home/jenkins/workspace/test/transit-common/src/main/java/com/chatak/transit/afcs/server/enums/RoleLevel.java
/home/jenkins/workspace/test/transit-common/src/main/java/com/chatak/transit/afcs/server/pojo/web/DeviceModelSearchData.java
/home/jenkins/workspace/test/transit-common/src/main/java/com/chatak/transit/afcs/server/pojo/web/StopSearchRequest.java
/home/jenkins/workspace/test/transit-common/src/main/java/com/chatak/transit/afcs/server/pojo/web/DepotStatusUpdateRequest.java
