-------------------------------------------------------------------------------
Test set: com.chatak.transit.afcs.server.dao.impl.FinancialTransactionDaoImplTest
-------------------------------------------------------------------------------
Tests run: 3, Failures: 0, Errors: 0, Skipped: 0, Time elapsed: 0.051 sec
