-------------------------------------------------------------------------------
Test set: com.chatak.transit.afcs.server.dao.impl.OperatorSessionReportGenerationDaoImplTest
-------------------------------------------------------------------------------
Tests run: 9, Failures: 0, Errors: 0, Skipped: 0, Time elapsed: 0.084 sec
