/home/jenkins/workspace/test/transit-dao/src/test/java/com/chatak/transit/afcs/server/dao/impl/DepotManagementDaoImplTest.java
/home/jenkins/workspace/test/transit-dao/src/test/java/com/chatak/transit/afcs/constants/TestConstants.java
/home/jenkins/workspace/test/transit-dao/src/test/java/com/chatak/transit/afcs/server/dao/impl/RouteManagementDaoImplTest.java
/home/jenkins/workspace/test/transit-dao/src/test/java/com/chatak/transit/afcs/server/dao/impl/PtoOperationManagementDaoImplTest.java
/home/jenkins/workspace/test/transit-dao/src/test/java/com/chatak/transit/afcs/server/dao/impl/RoleManagementDaoImplTest.java
/home/jenkins/workspace/test/transit-dao/src/test/java/com/chatak/transit/afcs/server/dao/impl/StopManagementDaoImplTest.java
/home/jenkins/workspace/test/transit-dao/src/test/java/com/chatak/transit/afcs/server/dao/impl/UserSessionManagementDaoImplTest.java
/home/jenkins/workspace/test/transit-dao/src/test/java/com/chatak/transit/afcs/server/dao/impl/CustomErrorResolutionDaoImplTest.java
/home/jenkins/workspace/test/transit-dao/src/test/java/com/chatak/transit/afcs/server/dao/impl/TerminalSetupReportGenerationDaoImplTest.java
/home/jenkins/workspace/test/transit-dao/src/test/java/com/chatak/transit/afcs/server/dao/impl/TicketTransactionDaoImplTest.java
/home/jenkins/workspace/test/transit-dao/src/test/java/com/chatak/transit/afcs/server/dao/impl/DeviceTypeManagementDaoImplTest.java
/home/jenkins/workspace/test/transit-dao/src/test/java/com/chatak/transit/afcs/server/dao/impl/TransactionReportGenerationDaoImplTest.java
/home/jenkins/workspace/test/transit-dao/src/test/java/com/chatak/transit/afcs/server/dao/impl/FinancialTransactionDaoImplTest.java
/home/jenkins/workspace/test/transit-dao/src/test/java/com/chatak/transit/afcs/server/dao/impl/OperatorSessionReportGenerationDaoImplTest.java
/home/jenkins/workspace/test/transit-dao/src/test/java/com/chatak/transit/afcs/server/dao/impl/PtoManagementDaoImplTest.java
/home/jenkins/workspace/test/transit-dao/src/test/java/com/chatak/transit/afcs/server/dao/impl/EmailServiceDaoImplTest.java
/home/jenkins/workspace/test/transit-dao/src/test/java/com/chatak/transit/afcs/server/dao/impl/DeviceModelManagementDaoImplTest.java
